
<svg
   viewBox="2799 -1100 900 900"
   xmlns:svg="http://www.w3.org/2000/svg">
 
  <g
     stroke-width="32"
     id="g742"
     style="fill:#b3b3b3"
     inkscape:export-filename="../themes/pablo2023/layouts/partials/icons/icon-peertube.svg"
     inkscape:export-xdpi="96"
     inkscape:export-ydpi="96">
    <path
       d="m 2799,-911 v 341.344 l 256,-170.656"
       fill="#211f20"
       id="path736"
       style="fill:#b3b3b3" />
    <path
       d="m 2799,-569.656 v 341.344 l 256,-170.656"
       fill="#737373"
       id="path738"
       style="fill:#b3b3b3" />
    <path
       d="M 3055,-740.344 V -399 l 256,-170.656"
       fill="#f1680d"
       id="path740"
       style="fill:#b3b3b3" />
  </g>
</svg>
